Track organization progress • rsr
…
      Source: vignettes/articles/track-organization-progress.Rmd
      track-organization-progress.Rmd

Organizations can accumulate many users, projects, labels and answers. Keeping track of organization activity can be a real challenge. Here is a simple approach to tracking organization activity.

Get Sysrevs

rsr::get_sysrevs gets all of the sysrevs for a given organization.

sysrevs = rsr::get_sysrevs("Ontox")

#> # A tibble: 21 × 3
#>   project_id name                                               roles        
#>        <int> <chr>                                              <list>       
#> 1      77703 PAUSED/COMPLETE: Cholestasis Title/Abstract Screen <df [42 × 3]>
#> 2      90507 PAUSED:  Master Screening Labels                   <df [41 × 3]>
#> # … with 19 more rows

The first project above can be found at (sysrev.com/p/77703). The project names, creation dates, and roles are available.

Roles

Project administrators can be discovered by unnesting the roles column.

sysrevs |> unnest(roles) |> filter(role=="admin")

#> # A tibble: 92 × 4
#>   project_id name                                               username   role 
#>        <int> <chr>                                              <chr>      <chr>
#> 1      77703 PAUSED/COMPLETE: Cholestasis Title/Abstract Screen tom-sysrev admin
#> 2      77703 PAUSED/COMPLETE: Cholestasis Title/Abstract Screen bot        admin
#> # … with 90 more rows

Labeling activity

How active are the different projects? get_answers gets a projects answers. Run it on every project to get all organization answers. The p.answers function below guarantees that this section will run, even if get_answers breaks for some specific project.

p.answers  = possibly(rsr::get_answers,otherwise = tibble())
sr.answers = sysrevs |> 
  select(project_id,name) |> 
  mutate(answers = map(project_id,p.answers)) |> 
  unnest(answers)

#> # A tibble: 69,859 × 12
#>   project_id name       aid title lid   user_id confirm_time resolve short_label
#>        <int> <chr>    <int> <chr> <chr>   <int> <chr>        <lgl>   <chr>      
#> 1      77703 PAUSED… 1.28e7 Mech… 8174…    6058 2021-12-19 … FALSE   Include    
#> 2      77703 PAUSED… 1.28e7 Mech… d6e9…    6058 2021-12-19 … FALSE   Sufficient…
#> # … with 69,857 more rows, and 3 more variables: value_type <chr>,
#> #   answer <chr>, resolve_time <chr>
…
